{
  "A Dynamic display configuration tool.": "A Dynamic display configuration tool.",
  "A window switcher, application launcher and dmenu replacement.": "A window switcher, application launcher and dmenu replacement.",
  "CLI application to control the NetworkManager configuration. It gives you the power of the nm-applet, but in the terminal.": "CLI application to control the NetworkManager configuration. It gives you the power of the nm-applet, but in the terminal.",
  "Configuration": "Configuration",
  "Download Now": "Download Now",
  "Fedora Sway Image": "Fedora Sway Image",
  "Fedora Sway Spin": "Fedora Sway Spin",
  "File manager for Linux and other Unix-like systems.": "File manager for Linux and other Unix-like systems.",
  "Foot is a fast, lightweight and minimalistic Wayland terminal emulator.": "Foot is a fast, lightweight and minimalistic Wayland terminal emulator.",
  "Going Online": "Going Online",
  "Highly customizable Wayland bar for Sway and Wlroots based compositors.": "Highly customizable Wayland bar for Sway and Wlroots based compositors.",
  "Highly-configurable and lightweight notification daemon.": "Highly-configurable and lightweight notification daemon.",
  "Just a click and you're connected to your wireless LAN router, or online via many supported 3G mobile broadband cards.": "Just a click and you're connected to your wireless LAN router, or online via many supported 3G mobile broadband cards.",
  "NetworkManager Applet": "NetworkManager Applet",
  "Screenshot of Fedora Sway desktop": "Screenshot of Fedora Sway desktop",
  "Simple screen locker.": "Simple screen locker.",
  "The Fedora Sway Spin provides the popular Sway tiling window manager. It makes Sway accessible and appealing to both novices and advanced users who prefer not to use a mouse,touchpad, or other pointing device to interact with their environment. Featuring lightweight applications for web browsing, text editing, and media playback, the Fedora Sway Spin offers a complete experience with a minimalist user interface.": "The Fedora Sway Spin provides the popular Sway tiling window manager. It makes Sway accessible and appealing to both novices and advanced users who prefer not to use a mouse,touchpad, or other pointing device to interact with their environment. Featuring lightweight applications for web browsing, text editing, and media playback, the Fedora Sway Spin offers a complete experience with a minimalist user interface.",
  "The popular and free web browser backed by Mozilla, a non-profit dedicated to internet health and privacy.": "The popular and free web browser backed by Mozilla, a non-profit dedicated to internet health and privacy.",
  "Utilities": "Utilities",
  "imv is a command line image viewer intended for use with tiling window managers.": "imv is a command line image viewer intended for use with tiling window managers.",
  "light gets and sets the screen back-light brightness on Linux.": "light gets and sets the screen back-light brightness on Linux."
}
